^C:\USERS\TIMOH\SOURCE\REPOS\CPP_5D\CPP_5D\CONSOLEAPPLICATION1\DEBUG\CONSOLEAPPLICATION1.OBJ
C:\USERS\TIMOH\SOURCE\REPOS\CPP_5D\CPP_5D\CONSOLEAPPLICATION1\DEBUG\CONSOLEAPPLICATION1.EXE
C:\USERS\TIMOH\SOURCE\REPOS\CPP_5D\CPP_5D\CONSOLEAPPLICATION1\DEBUG\CONSOLEAPPLICATION1.ILK
C:\USERS\TIMOH\SOURCE\REPOS\CPP_5D\CPP_5D\CONSOLEAPPLICATION1\DEBUG\CONSOLEAPPLICATION1.PDB
